     1 0.023799 
     2 0.007359 
     3 0.015058 
     4 0.027802 
     5 0.025022 
     6 0.005152 
     7 -0.001081 
     8 -0.002713 
     9 0.009222 
     10 0.012712 
     11 -0.000503 
     12 0.003632 
     13 0.026570 
     14 0.013585 
     15 0.000495 
     16 -0.004292 
     17 0.024983 
     18 0.025944 
     19 0.001168 
     20 -0.003956 
     21 0.028451 
     22 0.012133 
     23 -0.002547 
     24 0.016454 
     25 -0.002185 
     26 0.022308 
     27 0.012118 
     28 0.016793 
     29 -0.005130 
     30 0.000422 
     31 0.009708 
     32 0.008029 
     33 0.007220 
     34 0.016439 
     35 0.016589 
     36 -0.003235 
     37 0.008524 
     38 0.011859 
     39 0.017475 
     40 0.005634 
     41 -0.000237 
     42 -0.004677 
     43 0.018614 
     44 0.008048 
     45 0.003687 
     46 0.003561 
     47 0.017078 
     48 0.006903 
     49 0.013057 
     50 -0.002875 
     51 -0.008417 
     52 0.004397 
     53 -0.006304 
     54 0.011654 
     55 -0.008347 
     56 0.005495 
     57 0.023077 
     58 0.013858 
     59 -0.000933 
     60 -0.001211 
     61 0.017170 
     62 -0.004693 
     63 0.003912 
     64 0.023931 
     65 0.016283 
     66 0.020726 
     67 -0.001012 
     68 0.016132 
     69 0.022094 
     70 0.006196 
     71 0.022411 
     72 0.021562 
     73 -0.000659 
     74 0.006498 
     75 0.001722 
     76 0.010478 
     77 0.011854 
     78 -0.001475 
     79 -0.002620 
     80 0.017745 
     81 0.013124 
     82 0.016558 
     83 0.016361 
     84 0.008187 
     85 0.026369 
     86 0.003896 
     87 0.022824 
     88 0.011360 
     89 0.009011 
     90 -0.001583 
     91 0.009653 
     92 0.023983 
     93 0.008513 
     94 0.021535 
     95 0.023381 
     96 0.013290 
     97 0.004736 
     98 -0.007580 
     99 0.022025 
     100 0.006223 
     101 0.024282 
     102 0.008713 
     103 0.006896 
     104 0.008933 
     105 0.025033 
     106 -0.006911 
     107 0.022991 
     108 0.023400 
     109 -0.005041 
     110 0.014271 
     111 0.010625 
     112 0.012499 
     113 0.027066 
     114 0.007896 
     115 0.005921 
     116 0.003015 
     117 0.028097 
     118 0.020550 
     119 0.031081 
     120 0.017075 
     121 0.017438 
     122 0.028442 
     123 0.004406 
     124 0.003565 
     125 0.016745 
     126 0.013028 
     127 0.006545 
     128 -0.000612 
     129 0.026059 
     130 0.019456 
     131 -0.002668 
     132 -0.013667 
     133 -0.004849 
     134 0.004612 
     135 0.017392 
     136 0.006837 
     137 0.001497 
     138 -0.006966 
     139 0.023686 
     140 0.013548 
     141 0.012759 
     142 -0.004041 
     143 0.007322 
     144 0.020778 
     145 -0.003067 
     146 0.018984 
     147 0.005938 
     148 -0.002053 
     149 -0.010598 
     150 -0.002322 
     151 0.017958 
     152 -0.005023 
     153 0.003631 
     154 0.015334 
     155 0.017534 
     156 0.011258 
     157 0.012851 
     158 -0.003155 
     159 0.008895 
     160 0.000916 
     161 0.017803 
     162 0.007199 
     163 0.021971 
     164 0.009597 
     165 0.014530 
     166 0.026831 
     167 0.007898 
     168 0.009368 
     169 0.010420 
     170 0.012430 
     171 -0.006111 
     172 -0.003320 
     173 0.019856 
     174 0.012264 
     175 0.000041 
     176 0.005013 
     177 0.007076 
     178 0.007393 
     179 0.008113 
     180 0.007784 
     181 0.006945 
     182 -0.001501 
     183 0.021943 
     184 0.013711 
     185 0.017365 
     186 0.018481 
     187 0.006521 
     188 0.014580 
     189 0.007530 
     190 0.001048 
     191 -0.000448 
     192 0.014470 
     193 -0.000181 
     194 0.011551 
     195 0.001139 
     196 0.012957 
     197 0.010339 
     198 0.017042 
     199 0.002172 
     200 0.026808 
     201 0.017099 
     202 0.018900 
     203 0.020722 
     204 0.024572 
     205 0.011145 
     206 0.025991 
     207 -0.002400 
     208 0.002257 
     209 0.003317 
     210 0.017144 
     211 0.016228 
     212 0.017259 
     213 0.015574 
     214 0.011283 
     215 0.023775 
     216 0.015582 
     217 -0.005527 
     218 -0.009055 
     219 0.020285 
     220 0.020656 
     221 -0.004358 
     222 0.016133 
     223 -0.000530 
     224 0.007246 
     225 0.020440 
     226 0.021607 
     227 0.014131 
     228 0.019484 
     229 0.018401 
     230 0.008459 
     231 0.007053 
     232 0.013005 
     233 0.001841 
     234 0.007673 
     235 -0.003191 
     236 0.000950 
     237 0.010190 
     238 0.005310 
     239 0.014757 
     240 0.011926 
     241 0.004525 
     242 -0.009630 
     243 0.022160 
     244 0.014793 
     245 0.018974 
     246 0.010404 
     247 -0.002607 
     248 -0.011405 
     249 -0.011740 
     250 0.012505 
     251 -0.011947 
     252 -0.015980 
     253 -0.017171 
     254 -0.019892 
     255 -0.001966 
     256 -0.019485 
     257 -0.017498 
     258 -0.011041 
     259 -0.014117 
     260 -0.002376 
     261 -0.005122 
     262 -0.011247 
     263 -0.008258 
     264 0.003838 
     265 0.010920 
     266 -0.018159 
     267 -0.010073 
     268 0.006088 
     269 -0.002489 
     270 -0.021124 
     271 -0.018844 
     272 -0.013490 
     273 -0.019016 
     274 -0.018708 
     275 -0.016634 
     276 -0.017653 
     277 -0.012723 
     278 -0.025922 
     279 -0.022448 
     280 -0.003861 
     281 -0.003761 
     282 -0.000646 
     283 -0.025126 
     284 -0.014124 
     285 -0.000262 
     286 0.002080 
     287 -0.016243 
     288 -0.000891 
     289 -0.027847 
     290 -0.016818 
     291 -0.025483 
     292 -0.001452 
     293 -0.005090 
     294 -0.009448 
     295 -0.006923 
     296 0.003928 
     297 -0.018248 
     298 -0.016837 
     299 -0.011715 
     300 -0.021023 
     301 -0.000290 
     302 -0.001926 
     303 -0.020935 
     304 -0.012722 
     305 -0.014882 
     306 -0.009599 
     307 -0.026549 
     308 -0.024121 
     309 -0.009709 
     310 -0.025771 
     311 -0.004865 
     312 0.009909 
     313 -0.023920 
     314 0.001424 
     315 -0.024386 
     316 -0.004304 
     317 -0.016106 
     318 -0.020899 
     319 -0.012215 
     320 -0.012361 
     321 -0.001305 
     322 0.011835 
     323 -0.023181 
     324 -0.015176 
     325 0.000211 
     326 -0.007107 
     327 -0.017079 
     328 -0.024802 
     329 -0.004435 
     330 -0.016455 
     331 -0.018146 
     332 -0.015400 
     333 -0.001380 
     334 -0.019724 
     335 -0.020183 
     336 -0.017794 
     337 -0.022198 
     338 -0.016742 
     339 -0.016320 
     340 -0.024098 
     341 -0.021041 
     342 -0.020759 
     343 -0.009038 
     344 0.005432 
     345 -0.002883 
     346 -0.006622 
     347 -0.009356 
     348 0.003796 
     349 -0.019750 
     350 -0.004420 
     351 -0.022848 
     352 0.007128 
     353 -0.015337 
     354 -0.021130 
     355 -0.006608 
     356 -0.009648 
     357 -0.009640 
     358 -0.005134 
     359 -0.003217 
     360 -0.011398 
     361 -0.008481 
     362 -0.013170 
     363 0.003968 
     364 -0.014995 
     365 -0.005500 
     366 -0.014555 
     367 -0.016300 
     368 -0.006255 
     369 0.009409 
     370 0.003275 
     371 -0.014581 
     372 -0.007965 
     373 -0.008398 
     374 0.010769 
     375 -0.003378 
     376 -0.020305 
     377 -0.022981 
     378 -0.005000 
     379 0.005986 
     380 -0.011604 
     381 -0.021887 
     382 -0.011961 
     383 -0.018654 
     384 -0.002544 
     385 -0.005377 
     386 -0.020076 
     387 -0.001137 
     388 -0.005646 
     389 -0.012456 
     390 -0.012219 
     391 -0.018893 
     392 -0.021982 
     393 -0.018385 
     394 0.002581 
     395 0.011404 
     396 -0.007651 
     397 -0.022224 
     398 -0.022541 
     399 -0.026928 
     400 -0.015953 
     401 0.009206 
     402 0.005776 
     403 0.010156 
     404 0.001178 
     405 -0.006746 
     406 -0.000469 
     407 -0.005310 
     408 -0.009218 
     409 0.012494 
     410 0.007180 
     411 -0.010755 
     412 -0.025115 
     413 -0.017312 
     414 -0.007256 
     415 0.009168 
     416 0.003472 
     417 -0.019536 
     418 0.003663 
     419 -0.016000 
     420 -0.003127 
     421 -0.006540 
     422 0.002571 
     423 -0.007179 
     424 -0.012936 
     425 -0.019159 
     426 -0.007788 
     427 -0.019229 
     428 0.007265 
     429 -0.007543 
     430 -0.021523 
     431 -0.026327 
     432 -0.020718 
     433 -0.012520 
     434 -0.023268 
     435 -0.014062 
     436 -0.017482 
     437 0.001124 
     438 -0.013404 
     439 -0.011595 
     440 -0.011926 
     441 -0.015834 
     442 -0.000745 
     443 -0.012884 
     444 -0.016874 
     445 -0.007586 
     446 -0.012111 
     447 0.000022 
     448 -0.000215 
     449 -0.025335 
     450 -0.023134 
     451 -0.015169 
     452 -0.021019 
     453 -0.021953 
     454 0.014908 
     455 0.001573 
     456 -0.022752 
     457 -0.012689 
     458 -0.014309 
     459 -0.014632 
     460 -0.011990 
     461 -0.020966 
     462 0.003093 
     463 -0.013569 
     464 -0.009254 
     465 -0.001945 
     466 -0.018241 
     467 -0.027198 
     468 -0.002563 
     469 -0.008252 
     470 -0.018938 
     471 -0.021404 
     472 -0.010390 
     473 -0.010682 
     474 -0.024093 
     475 -0.005546 
     476 -0.017186 
     477 -0.026596 
     478 -0.005026 
     479 -0.014817 
     480 0.000240 
     481 0.006527 
     482 -0.023613 
     483 -0.014640 
     484 0.000907 
     485 -0.010133 
     486 -0.020741 
     487 -0.004856 
     488 -0.021952 
     489 -0.001860 
     490 -0.023326 
     491 -0.013389 
     492 0.001289 
     493 -0.022369 
     494 -0.015079 
     495 -0.017903 
     496 -0.001354 
     497 -0.027117 
     498 -0.023802 
     499 -0.015784 
     500 -0.000236 