\relax 
\providecommand\hyper@newdestlabel[2]{}
\providecommand\HyperFirstAtBeginDocument{\AtBeginDocument}
\HyperFirstAtBeginDocument{\ifx\hyper@anchor\@undefined
\global\let\oldcontentsline\contentsline
\gdef\contentsline#1#2#3#4{\oldcontentsline{#1}{#2}{#3}}
\global\let\oldnewlabel\newlabel
\gdef\newlabel#1#2{\newlabelxx{#1}#2}
\gdef\newlabelxx#1#2#3#4#5#6{\oldnewlabel{#1}{{#2}{#3}}}
\AtEndDocument{\ifx\hyper@anchor\@undefined
\let\contentsline\oldcontentsline
\let\newlabel\oldnewlabel
\fi}
\fi}
\global\let\hyper@last\relax 
\gdef\HyperFirstAtBeginDocument#1{#1}
\providecommand\HyField@AuxAddToFields[1]{}
\providecommand\HyField@AuxAddToCoFields[2]{}
\@writefile{toc}{\contentsline {section}{\numberline {1}Working book title}{1}{section.1}\protected@file@percent }
\@writefile{toc}{\contentsline {section}{\numberline {2}Rationale and scope}{2}{section.2}\protected@file@percent }
\@writefile{toc}{\contentsline {paragraph}{Historical point.}{2}{section*.1}\protected@file@percent }
\@writefile{toc}{\contentsline {paragraph}{Rationale.}{2}{section*.2}\protected@file@percent }
\@writefile{toc}{\contentsline {paragraph}{What the book includes/excludes.}{3}{section*.3}\protected@file@percent }
\@writefile{toc}{\contentsline {section}{\numberline {3}Readership}{4}{section.3}\protected@file@percent }
\@writefile{toc}{\contentsline {paragraph}{Rationale.}{5}{section*.4}\protected@file@percent }
\@writefile{toc}{\contentsline {paragraph}{University programs.}{5}{section*.5}\protected@file@percent }
\@writefile{toc}{\contentsline {section}{\numberline {4}Competing/related books}{6}{section.4}\protected@file@percent }
\@writefile{toc}{\contentsline {section}{\numberline {5}Detailed table of contents}{7}{section.5}\protected@file@percent }
\@writefile{toc}{\contentsline {section}{\numberline {6}Special features}{9}{section.6}\protected@file@percent }
\@writefile{toc}{\contentsline {section}{\numberline {7}Description of any ancillary material}{10}{section.7}\protected@file@percent }
\@writefile{toc}{\contentsline {section}{\numberline {8}Proposed length of the book and its proposed completion date}{10}{section.8}\protected@file@percent }
\@writefile{toc}{\contentsline {section}{\numberline {9}Brief credentials of the author(s)}{10}{section.9}\protected@file@percent }
\@writefile{toc}{\contentsline {paragraph}{\href  {https://romaincouillet.hebfree.org/index.html}{Romain COUILLET}}{10}{section*.6}\protected@file@percent }
\@writefile{toc}{\contentsline {paragraph}{\href  {https://zhenyu-liao.github.io/}{Zhenyu LIAO}}{11}{section*.7}\protected@file@percent }
