\BOOKMARK [0][-]{chapter.1}{\376\377\000I\000n\000t\000r\000o\000d\000u\000c\000t\000i\000o\000n}{}% 1
\BOOKMARK [1][-]{section.1.1}{\376\377\000M\000o\000t\000i\000v\000a\000t\000i\000o\000n\000:\000\040\000t\000h\000e\000\040\000p\000i\000t\000f\000a\000l\000l\000s\000\040\000o\000f\000\040\000l\000a\000r\000g\000e\000\040\000d\000i\000m\000e\000n\000s\000i\000o\000n\000a\000l\000\040\000s\000t\000a\000t\000i\000s\000t\000i\000c\000s}{chapter.1}% 2
\BOOKMARK [1][-]{section.1.2}{\376\377\000R\000a\000n\000d\000o\000m\000\040\000m\000a\000t\000r\000i\000x\000\040\000t\000h\000e\000o\000r\000y\000\040\000a\000s\000\040\000a\000n\000\040\000a\000n\000s\000w\000e\000r}{chapter.1}% 3
\BOOKMARK [1][-]{section.1.3}{\376\377\000O\000u\000t\000l\000i\000n\000e\000\040\000a\000n\000d\000\040\000o\000n\000l\000i\000n\000e\000\040\000t\000o\000o\000l\000b\000o\000x}{chapter.1}% 4
\BOOKMARK [0][-]{chapter.2}{\376\377\000R\000a\000n\000d\000o\000m\000\040\000M\000a\000t\000r\000i\000x\000\040\000T\000h\000e\000o\000r\000y}{}% 5
\BOOKMARK [1][-]{section.2.1}{\376\377\000F\000u\000n\000d\000a\000m\000e\000n\000t\000a\000l\000\040\000o\000b\000j\000e\000c\000t\000s}{chapter.2}% 6
\BOOKMARK [1][-]{section.2.2}{\376\377\000F\000o\000u\000n\000d\000a\000t\000i\000o\000n\000a\000l\000\040\000r\000a\000n\000d\000o\000m\000\040\000m\000a\000t\000r\000i\000x\000\040\000r\000e\000s\000u\000l\000t\000s}{chapter.2}% 7
\BOOKMARK [1][-]{section.2.3}{\376\377\000A\000d\000v\000a\000n\000c\000e\000d\000\040\000s\000p\000e\000c\000t\000r\000u\000m\000\040\000c\000o\000n\000s\000i\000d\000e\000r\000a\000t\000i\000o\000n\000s\000\040\000f\000o\000r\000\040\000s\000a\000m\000p\000l\000e\000\040\000c\000o\000v\000a\000r\000i\000a\000n\000c\000e\000s}{chapter.2}% 8
\BOOKMARK [1][-]{section.2.4}{\376\377\000P\000r\000e\000l\000i\000m\000i\000n\000a\000r\000i\000e\000s\000\040\000o\000n\000\040\000s\000t\000a\000t\000i\000s\000t\000i\000c\000a\000l\000\040\000i\000n\000f\000e\000r\000e\000n\000c\000e}{chapter.2}% 9
\BOOKMARK [1][-]{section.2.5}{\376\377\000S\000p\000i\000k\000e\000d\000\040\000m\000o\000d\000e\000l\000s}{chapter.2}% 10
\BOOKMARK [1][-]{section.2.6}{\376\377\000I\000n\000f\000o\000r\000m\000a\000t\000i\000o\000n\000-\000p\000l\000u\000s\000-\000n\000o\000i\000s\000e\000,\000\040\000d\000e\000f\000o\000r\000m\000e\000d\000\040\000W\000i\000g\000n\000e\000r\000,\000\040\000a\000n\000d\000\040\000o\000t\000h\000e\000r\000\040\000m\000o\000d\000e\000l\000s}{chapter.2}% 11
\BOOKMARK [1][-]{section.2.7}{\376\377\000B\000e\000y\000o\000n\000d\000\040\000v\000e\000c\000t\000o\000r\000s\000\040\000o\000f\000\040\000i\000n\000d\000e\000p\000e\000n\000d\000e\000n\000t\000\040\000e\000n\000t\000r\000i\000e\000s\000:\000\040\000c\000o\000n\000c\000e\000n\000t\000r\000a\000t\000i\000o\000n\000\040\000o\000f\000\040\000m\000e\000a\000s\000u\000r\000e\000\040\000i\000n\000\040\000R\000M\000T}{chapter.2}% 12
\BOOKMARK [1][-]{section.2.8}{\376\377\000C\000o\000n\000c\000l\000u\000d\000i\000n\000g\000\040\000r\000e\000m\000a\000r\000k\000s}{chapter.2}% 13
\BOOKMARK [1][-]{section.2.9}{\376\377\000E\000x\000e\000r\000c\000i\000s\000e\000s}{chapter.2}% 14
\BOOKMARK [0][-]{chapter.3}{\376\377\000S\000t\000a\000t\000i\000s\000t\000i\000c\000a\000l\000\040\000I\000n\000f\000e\000r\000e\000n\000c\000e\000\040\000i\000n\000\040\000L\000i\000n\000e\000a\000r\000\040\000M\000o\000d\000e\000l\000s}{}% 15
\BOOKMARK [1][-]{section.3.1}{\376\377\000D\000e\000t\000e\000c\000t\000i\000o\000n\000\040\000a\000n\000d\000\040\000e\000s\000t\000i\000m\000a\000t\000i\000o\000n\000\040\000i\000n\000\040\000i\000n\000f\000o\000r\000m\000a\000t\000i\000o\000n\000-\000p\000l\000u\000s\000-\000n\000o\000i\000s\000e\000\040\000m\000o\000d\000e\000l\000s}{chapter.3}% 16
\BOOKMARK [1][-]{section.3.2}{\376\377\000C\000o\000v\000a\000r\000i\000a\000n\000c\000e\000\040\000m\000a\000t\000r\000i\000x\000\040\000d\000i\000s\000t\000a\000n\000c\000e\000\040\000e\000s\000t\000i\000m\000a\000t\000i\000o\000n}{chapter.3}% 17
\BOOKMARK [1][-]{section.3.3}{\376\377\000M\000-\000e\000s\000t\000i\000m\000a\000t\000o\000r\000s\000\040\000o\000f\000\040\000s\000c\000a\000t\000t\000e\000r}{chapter.3}% 18
\BOOKMARK [1][-]{section.3.4}{\376\377\000C\000o\000n\000c\000l\000u\000d\000i\000n\000g\000\040\000r\000e\000m\000a\000r\000k\000s}{chapter.3}% 19
\BOOKMARK [1][-]{section.3.5}{\376\377\000P\000r\000a\000c\000t\000i\000c\000a\000l\000\040\000c\000o\000u\000r\000s\000e\000\040\000m\000a\000t\000e\000r\000i\000a\000l}{chapter.3}% 20
\BOOKMARK [0][-]{chapter.4}{\376\377\000K\000e\000r\000n\000e\000l\000\040\000M\000e\000t\000h\000o\000d\000s}{}% 21
\BOOKMARK [1][-]{section.4.1}{\376\377\000B\000a\000s\000i\000c\000\040\000s\000e\000t\000t\000i\000n\000g}{chapter.4}% 22
\BOOKMARK [1][-]{section.4.2}{\376\377\000D\000i\000s\000t\000a\000n\000c\000e\000\040\000a\000n\000d\000\040\000i\000n\000n\000e\000r\000-\000p\000r\000o\000d\000u\000c\000t\000\040\000r\000a\000n\000d\000o\000m\000\040\000k\000e\000r\000n\000e\000l\000\040\000m\000a\000t\000r\000i\000c\000e\000s}{chapter.4}% 23
\BOOKMARK [1][-]{section.4.3}{\376\377\000P\000r\000o\000p\000e\000r\000l\000y\000\040\000s\000c\000a\000l\000i\000n\000g\000\040\000k\000e\000r\000n\000e\000l\000\040\000m\000o\000d\000e\000l}{chapter.4}% 24
\BOOKMARK [1][-]{section.4.4}{\376\377\000I\000m\000p\000l\000i\000c\000a\000t\000i\000o\000n\000s\000\040\000t\000o\000\040\000k\000e\000r\000n\000e\000l\000\040\000m\000e\000t\000h\000o\000d\000s}{chapter.4}% 25
\BOOKMARK [1][-]{section.4.5}{\376\377\000C\000o\000n\000c\000l\000u\000d\000i\000n\000g\000\040\000r\000e\000m\000a\000r\000k\000s}{chapter.4}% 26
\BOOKMARK [1][-]{section.4.6}{\376\377\000P\000r\000a\000c\000t\000i\000c\000a\000l\000\040\000c\000o\000u\000r\000s\000e\000\040\000m\000a\000t\000e\000r\000i\000a\000l}{chapter.4}% 27
\BOOKMARK [0][-]{chapter.5}{\376\377\000L\000a\000r\000g\000e\000\040\000N\000e\000u\000r\000a\000l\000\040\000N\000e\000t\000w\000o\000r\000k\000s}{}% 28
\BOOKMARK [1][-]{section.5.1}{\376\377\000R\000a\000n\000d\000o\000m\000\040\000n\000e\000u\000r\000a\000l\000\040\000n\000e\000t\000w\000o\000r\000k\000s}{chapter.5}% 29
\BOOKMARK [1][-]{section.5.2}{\376\377\000G\000r\000a\000d\000i\000e\000n\000t\000\040\000d\000e\000s\000c\000e\000n\000t\000\040\000d\000y\000n\000a\000m\000i\000c\000s\000\040\000i\000n\000\040\000l\000e\000a\000r\000n\000i\000n\000g\000\040\000l\000i\000n\000e\000a\000r\000\040\000n\000e\000u\000r\000a\000l\000\040\000n\000e\000t\000s}{chapter.5}% 30
\BOOKMARK [1][-]{section.5.3}{\376\377\000R\000e\000c\000u\000r\000r\000e\000n\000t\000\040\000n\000e\000u\000r\000a\000l\000\040\000n\000e\000t\000s\000:\000\040\000e\000c\000h\000o\000\040\000s\000t\000a\000t\000e\000\040\000n\000e\000t\000w\000o\000r\000k\000s}{chapter.5}% 31
\BOOKMARK [1][-]{section.5.4}{\376\377\000C\000o\000n\000c\000l\000u\000d\000i\000n\000g\000\040\000r\000e\000m\000a\000r\000k\000s}{chapter.5}% 32
\BOOKMARK [1][-]{section.5.5}{\376\377\000P\000r\000a\000c\000t\000i\000c\000a\000l\000\040\000c\000o\000u\000r\000s\000e\000\040\000m\000a\000t\000e\000r\000i\000a\000l}{chapter.5}% 33
\BOOKMARK [0][-]{chapter.6}{\376\377\000L\000a\000r\000g\000e\000\040\000D\000i\000m\000e\000n\000s\000i\000o\000n\000a\000l\000\040\000C\000o\000n\000v\000e\000x\000\040\000O\000p\000t\000i\000m\000i\000z\000a\000t\000i\000o\000n}{}% 34
\BOOKMARK [1][-]{section.6.1}{\376\377\000G\000e\000n\000e\000r\000a\000l\000i\000z\000e\000d\000\040\000l\000i\000n\000e\000a\000r\000\040\000c\000l\000a\000s\000s\000i\000f\000i\000e\000r}{chapter.6}% 35
\BOOKMARK [1][-]{section.6.2}{\376\377\000L\000a\000r\000g\000e\000\040\000d\000i\000m\000e\000n\000s\000i\000o\000n\000a\000l\000\040\000s\000u\000p\000p\000o\000r\000t\000\040\000v\000e\000c\000t\000o\000r\000\040\000m\000a\000c\000h\000i\000n\000e\000s}{chapter.6}% 36
\BOOKMARK [1][-]{section.6.3}{\376\377\000C\000o\000n\000c\000l\000u\000d\000i\000n\000g\000\040\000r\000e\000m\000a\000r\000k\000s}{chapter.6}% 37
\BOOKMARK [1][-]{section.6.4}{\376\377\000P\000r\000a\000c\000t\000i\000c\000a\000l\000\040\000c\000o\000u\000r\000s\000e\000\040\000m\000a\000t\000e\000r\000i\000a\000l}{chapter.6}% 38
\BOOKMARK [0][-]{chapter.7}{\376\377\000C\000o\000m\000m\000u\000n\000i\000t\000y\000\040\000D\000e\000t\000e\000c\000t\000i\000o\000n\000\040\000o\000n\000\040\000G\000r\000a\000p\000h\000s}{}% 39
\BOOKMARK [1][-]{section.7.1}{\376\377\000C\000o\000m\000m\000u\000n\000i\000t\000y\000\040\000d\000e\000t\000e\000c\000t\000i\000o\000n\000\040\000i\000n\000\040\000d\000e\000n\000s\000e\000\040\000g\000r\000a\000p\000h\000s}{chapter.7}% 40
\BOOKMARK [1][-]{section.7.2}{\376\377\000F\000r\000o\000m\000\040\000d\000e\000n\000s\000e\000\040\000t\000o\000\040\000s\000p\000a\000r\000s\000e\000\040\000g\000r\000a\000p\000h\000s\000:\000\040\000a\000\040\000d\000i\000f\000f\000e\000r\000e\000n\000t\000\040\000a\000p\000p\000r\000o\000a\000c\000h}{chapter.7}% 41
\BOOKMARK [1][-]{section.7.3}{\376\377\000C\000o\000n\000c\000l\000u\000d\000i\000n\000g\000\040\000r\000e\000m\000a\000r\000k\000s}{chapter.7}% 42
\BOOKMARK [1][-]{section.7.4}{\376\377\000P\000r\000a\000c\000t\000i\000c\000a\000l\000\040\000c\000o\000u\000r\000s\000e\000\040\000m\000a\000t\000e\000r\000i\000a\000l}{chapter.7}% 43
\BOOKMARK [0][-]{chapter.8}{\376\377\000U\000n\000i\000v\000e\000r\000s\000a\000l\000i\000t\000y\000\040\000a\000n\000d\000\040\000R\000e\000a\000l\000\040\000D\000a\000t\000a}{}% 44
\BOOKMARK [1][-]{section.8.1}{\376\377\000F\000r\000o\000m\000\040\000G\000a\000u\000s\000s\000i\000a\000n\000\040\000m\000i\000x\000t\000u\000r\000e\000s\000\040\000t\000o\000\040\000c\000o\000n\000c\000e\000n\000t\000r\000a\000t\000e\000d\000\040\000r\000a\000n\000d\000o\000m\000\040\000v\000e\000c\000t\000o\000r\000s\000\040\000a\000n\000d\000\040\000G\000A\000N\000\040\000d\000a\000t\000a}{chapter.8}% 45
\BOOKMARK [1][-]{section.8.2}{\376\377\000W\000i\000d\000e\000-\000s\000e\000n\000s\000e\000\040\000u\000n\000i\000v\000e\000r\000s\000a\000l\000i\000t\000y\000\040\000i\000n\000\040\000l\000a\000r\000g\000e\000\040\000d\000i\000m\000e\000n\000s\000i\000o\000n\000a\000l\000\040\000m\000a\000c\000h\000i\000n\000e\000\040\000l\000e\000a\000r\000n\000i\000n\000g}{chapter.8}% 46
\BOOKMARK [1][-]{section.8.3}{\376\377\000D\000i\000s\000c\000u\000s\000s\000i\000o\000n\000s\000\040\000a\000n\000d\000\040\000c\000o\000n\000c\000l\000u\000s\000i\000o\000n\000s}{chapter.8}% 47
\BOOKMARK [0][-]{chapter.9}{\376\377\000I\000n\000d\000e\000x}{}% 48
