\relax 
\providecommand*\caption@xref[2]{\@setref\relax\@undefined{#1}}
\newlabel{fig:bias-variance-classical}{{1a}{1}}
\newlabel{sub@fig:bias-variance-classical}{{a}{1}}
\newlabel{fig:bias-variance-modern}{{1b}{1}}
\newlabel{sub@fig:bias-variance-modern}{{b}{1}}
\gdef \@abspage@last{1}
